%YAML 1.1
%TAG !u! tag:unity3d.com,2011:
--- !u!1001 &2910675303599287440
PrefabInstance:
  m_ObjectHideFlags: 0
  serializedVersion: 2
  m_Modification:
    m_TransformParent: {fileID: 0}
    m_Modifications:
    - target: {fileID: 5065796095181605457, guid: a375724cfe402b344959dfef14ca1388,
        type: 3}
      propertyPath: type
      value: 3
      objectReference: {fileID: 0}
    - target: {fileID: 6574333833452468079, guid: a375724cfe402b344959dfef14ca1388,
        type: 3}
      propertyPath: m_RootOrder
      value: 0
      objectReference: {fileID: 0}
    - target: {fileID: 6574333833452468079, guid: a375724cfe402b344959dfef14ca1388,
        type: 3}
      propertyPath: m_LocalPosition.x
      value: 33
      objectReference: {fileID: 0}
    - target: {fileID: 6574333833452468079, guid: a375724cfe402b344959dfef14ca1388,
        type: 3}
      propertyPath: m_LocalPosition.y
      value: 0.75
      objectReference: {fileID: 0}
    - target: {fileID: 6574333833452468079, guid: a375724cfe402b344959dfef14ca1388,
        type: 3}
      propertyPath: m_LocalPosition.z
      value: 9.5
      objectReference: {fileID: 0}
    - target: {fileID: 6574333833452468079, guid: a375724cfe402b344959dfef14ca1388,
        type: 3}
      propertyPath: m_LocalRotation.w
      value: 1
      objectReference: {fileID: 0}
    - target: {fileID: 6574333833452468079, guid: a375724cfe402b344959dfef14ca1388,
        type: 3}
      propertyPath: m_LocalRotation.x
      value: 0
      objectReference: {fileID: 0}
    - target: {fileID: 6574333833452468079, guid: a375724cfe402b344959dfef14ca1388,
        type: 3}
      propertyPath: m_LocalRotation.y
      value: 0
      objectReference: {fileID: 0}
    - target: {fileID: 6574333833452468079, guid: a375724cfe402b344959dfef14ca1388,
        type: 3}
      propertyPath: m_LocalRotation.z
      value: 0
      objectReference: {fileID: 0}
    - target: {fileID: 6574333833452468079, guid: a375724cfe402b344959dfef14ca1388,
        type: 3}
      propertyPath: m_LocalEulerAnglesHint.x
      value: 0
      objectReference: {fileID: 0}
    - target: {fileID: 6574333833452468079, guid: a375724cfe402b344959dfef14ca1388,
        type: 3}
      propertyPath: m_LocalEulerAnglesHint.y
      value: 0
      objectReference: {fileID: 0}
    - target: {fileID: 6574333833452468079, guid: a375724cfe402b344959dfef14ca1388,
        type: 3}
      propertyPath: m_LocalEulerAnglesHint.z
      value: 0
      objectReference: {fileID: 0}
    - target: {fileID: 6574333833452468081, guid: a375724cfe402b344959dfef14ca1388,
        type: 3}
      propertyPath: m_Materials.Array.data[0]
      value: 
      objectReference: {fileID: 2100000, guid: b36712d421ce8b440a486a5de7973c08, type: 2}
    - target: {fileID: 6574333833452468082, guid: a375724cfe402b344959dfef14ca1388,
        type: 3}
      propertyPath: m_Name
      value: Object_Small Variant
      objectReference: {fileID: 0}
    m_RemovedComponents: []
  m_SourcePrefab: {fileID: 100100000, guid: a375724cfe402b344959dfef14ca1388, type: 3}
